^C:\BNJMO\PROJECTS\VISUAL STUDIO\LEGENDARY TUM TEAM\PROJECT\GAMEPHYSICSEX1\MASSSPRINGSYSTEM\DIRECTXTK\BIN\DESKTOP_2013\WIN32\DEBUG\ALPHATESTEFFECT.OBJ|C:\BNJMO\PROJECTS\VISUAL STUDIO\LEGENDARY TUM TEAM\PROJECT\GAMEPHYSICSEX1\MASSSPRINGSYSTEM\DIRECTXTK\BIN\DESKTOP_2013\WIN32\DEBUG\BASICEFFECT.OBJ|C:\BNJMO\PROJECTS\VISUAL STUDIO\LEGENDARY TUM TEAM\PROJECT\GAMEPHYSICSEX1\MASSSPRINGSYSTEM\DIRECTXTK\BIN\DESKTOP_2013\WIN32\DEBUG\BINARYREADER.OBJ|C:\BNJMO\PROJECTS\VISUAL STUDIO\LEGENDARY TUM TEAM\PROJECT\GAMEPHYSICSEX1\MASSSPRINGSYSTEM\DIRECTXTK\BIN\DESKTOP_2013\WIN32\DEBUG\COMMONSTATES.OBJ|C:\BNJMO\PROJECTS\VISUAL STUDIO\LEGENDARY TUM TEAM\PROJECT\GAMEPHYSICSEX1\MASSSPRINGSYSTEM\DIRECTXTK\BIN\DESKTOP_2013\WIN32\DEBUG\DDSTEXTURELOADER.OBJ|C:\BNJMO\PROJECTS\VISUAL STUDIO\LEGENDARY TUM TEAM\PROJECT\GAMEPHYSICSEX1\MASSSPRINGSYSTEM\DIRECTXTK\BIN\DESKTOP_2013\WIN32\DEBUG\DGSLEFFECT.OBJ|C:\BNJMO\PROJECTS\VISUAL STUDIO\LEGENDARY TUM TEAM\PROJECT\GAMEPHYSICSEX1\MASSSPRINGSYSTEM\DIRECTXTK\BIN\DESKTOP_2013\WIN32\DEBUG\DGSLEFFECTFACTORY.OBJ|C:\BNJMO\PROJECTS\VISUAL STUDIO\LEGENDARY TUM TEAM\PROJECT\GAMEPHYSICSEX1\MASSSPRINGSYSTEM\DIRECTXTK\BIN\DESKTOP_2013\WIN32\DEBUG\DUALTEXTUREEFFECT.OBJ|C:\BNJMO\PROJECTS\VISUAL STUDIO\LEGENDARY TUM TEAM\PROJECT\GAMEPHYSICSEX1\MASSSPRINGSYSTEM\DIRECTXTK\BIN\DESKTOP_2013\WIN32\DEBUG\EFFECTCOMMON.OBJ|C:\BNJMO\PROJECTS\VISUAL STUDIO\LEGENDARY TUM TEAM\PROJECT\GAMEPHYSICSEX1\MASSSPRINGSYSTEM\DIRECTXTK\BIN\DESKTOP_2013\WIN32\DEBUG\EFFECTFACTORY.OBJ|C:\BNJMO\PROJECTS\VISUAL STUDIO\LEGENDARY TUM TEAM\PROJECT\GAMEPHYSICSEX1\MASSSPRINGSYSTEM\DIRECTXTK\BIN\DESKTOP_2013\WIN32\DEBUG\ENVIRONMENTMAPEFFECT.OBJ|C:\BNJMO\PROJECTS\VISUAL STUDIO\LEGENDARY TUM TEAM\PROJECT\GAMEPHYSICSEX1\MASSSPRINGSYSTEM\DIRECTXTK\BIN\DESKTOP_2013\WIN32\DEBUG\GAMEPAD.OBJ|C:\BNJMO\PROJECTS\VISUAL STUDIO\LEGENDARY TUM TEAM\PROJECT\GAMEPHYSICSEX1\MASSSPRINGSYSTEM\DIRECTXTK\BIN\DESKTOP_2013\WIN32\DEBUG\GEOMETRICPRIMITIVE.OBJ|C:\BNJMO\PROJECTS\VISUAL STUDIO\LEGENDARY TUM TEAM\PROJECT\GAMEPHYSICSEX1\MASSSPRINGSYSTEM\DIRECTXTK\BIN\DESKTOP_2013\WIN32\DEBUG\MODEL.OBJ|C:\BNJMO\PROJECTS\VISUAL STUDIO\LEGENDARY TUM TEAM\PROJECT\GAMEPHYSICSEX1\MASSSPRINGSYSTEM\DIRECTXTK\BIN\DESKTOP_2013\WIN32\DEBUG\MODELLOADCMO.OBJ|C:\BNJMO\PROJECTS\VISUAL STUDIO\LEGENDARY TUM TEAM\PROJECT\GAMEPHYSICSEX1\MASSSPRINGSYSTEM\DIRECTXTK\BIN\DESKTOP_2013\WIN32\DEBUG\MODELLOADSDKMESH.OBJ|C:\BNJMO\PROJECTS\VISUAL STUDIO\LEGENDARY TUM TEAM\PROJECT\GAMEPHYSICSEX1\MASSSPRINGSYSTEM\DIRECTXTK\BIN\DESKTOP_2013\WIN32\DEBUG\PCH.OBJ|C:\BNJMO\PROJECTS\VISUAL STUDIO\LEGENDARY TUM TEAM\PROJECT\GAMEPHYSICSEX1\MASSSPRINGSYSTEM\DIRECTXTK\BIN\DESKTOP_2013\WIN32\DEBUG\PRIMITIVEBATCH.OBJ|C:\BNJMO\PROJECTS\VISUAL STUDIO\LEGENDARY TUM TEAM\PROJECT\GAMEPHYSICSEX1\MASSSPRINGSYSTEM\DIRECTXTK\BIN\DESKTOP_2013\WIN32\DEBUG\SCREENGRAB.OBJ|C:\BNJMO\PROJECTS\VISUAL STUDIO\LEGENDARY TUM TEAM\PROJECT\GAMEPHYSICSEX1\MASSSPRINGSYSTEM\DIRECTXTK\BIN\DESKTOP_2013\WIN32\DEBUG\SIMPLEMATH.OBJ|C:\BNJMO\PROJECTS\VISUAL STUDIO\LEGENDARY TUM TEAM\PROJECT\GAMEPHYSICSEX1\MASSSPRINGSYSTEM\DIRECTXTK\BIN\DESKTOP_2013\WIN32\DEBUG\SKINNEDEFFECT.OBJ|C:\BNJMO\PROJECTS\VISUAL STUDIO\LEGENDARY TUM TEAM\PROJECT\GAMEPHYSICSEX1\MASSSPRINGSYSTEM\DIRECTXTK\BIN\DESKTOP_2013\WIN32\DEBUG\SPRITEBATCH.OBJ|C:\BNJMO\PROJECTS\VISUAL STUDIO\LEGENDARY TUM TEAM\PROJECT\GAMEPHYSICSEX1\MASSSPRINGSYSTEM\DIRECTXTK\BIN\DESKTOP_2013\WIN32\DEBUG\SPRITEFONT.OBJ|C:\BNJMO\PROJECTS\VISUAL STUDIO\LEGENDARY TUM TEAM\PROJECT\GAMEPHYSICSEX1\MASSSPRINGSYSTEM\DIRECTXTK\BIN\DESKTOP_2013\WIN32\DEBUG\VERTEXTYPES.OBJ|C:\BNJMO\PROJECTS\VISUAL STUDIO\LEGENDARY TUM TEAM\PROJECT\GAMEPHYSICSEX1\MASSSPRINGSYSTEM\DIRECTXTK\BIN\DESKTOP_2013\WIN32\DEBUG\WICTEXTURELOADER.OBJ
C:\PROGRAM FILES (X86)\MICROSOFT VISUAL STUDIO 14.0\VC\BIN\VCTIP.EXE
C:\WINDOWS\SYSTEM32\TZRES.DLL
C:\WINDOWS\GLOBALIZATION\SORTING\SORTDEFAULT.NLS
C:\BNJMO\PROJECTS\VISUAL STUDIO\LEGENDARY TUM TEAM\PROJECT\GAMEPHYSICSEX1\MASSSPRINGSYSTEM\DIRECTXTK\BIN\DESKTOP_2013\WIN32\DEBUG\ALPHATESTEFFECT.OBJ
C:\BNJMO\PROJECTS\VISUAL STUDIO\LEGENDARY TUM TEAM\PROJECT\GAMEPHYSICSEX1\MASSSPRINGSYSTEM\DIRECTXTK\BIN\DESKTOP_2013\WIN32\DEBUG\BASICEFFECT.OBJ
C:\BNJMO\PROJECTS\VISUAL STUDIO\LEGENDARY TUM TEAM\PROJECT\GAMEPHYSICSEX1\MASSSPRINGSYSTEM\DIRECTXTK\BIN\DESKTOP_2013\WIN32\DEBUG\COMMONSTATES.OBJ
C:\BNJMO\PROJECTS\VISUAL STUDIO\LEGENDARY TUM TEAM\PROJECT\GAMEPHYSICSEX1\MASSSPRINGSYSTEM\DIRECTXTK\BIN\DESKTOP_2013\WIN32\DEBUG\DDSTEXTURELOADER.OBJ
C:\BNJMO\PROJECTS\VISUAL STUDIO\LEGENDARY TUM TEAM\PROJECT\GAMEPHYSICSEX1\MASSSPRINGSYSTEM\DIRECTXTK\BIN\DESKTOP_2013\WIN32\DEBUG\DGSLEFFECT.OBJ
C:\BNJMO\PROJECTS\VISUAL STUDIO\LEGENDARY TUM TEAM\PROJECT\GAMEPHYSICSEX1\MASSSPRINGSYSTEM\DIRECTXTK\BIN\DESKTOP_2013\WIN32\DEBUG\DGSLEFFECTFACTORY.OBJ
C:\BNJMO\PROJECTS\VISUAL STUDIO\LEGENDARY TUM TEAM\PROJECT\GAMEPHYSICSEX1\MASSSPRINGSYSTEM\DIRECTXTK\BIN\DESKTOP_2013\WIN32\DEBUG\DUALTEXTUREEFFECT.OBJ
C:\BNJMO\PROJECTS\VISUAL STUDIO\LEGENDARY TUM TEAM\PROJECT\GAMEPHYSICSEX1\MASSSPRINGSYSTEM\DIRECTXTK\BIN\DESKTOP_2013\WIN32\DEBUG\BINARYREADER.OBJ
C:\BNJMO\PROJECTS\VISUAL STUDIO\LEGENDARY TUM TEAM\PROJECT\GAMEPHYSICSEX1\MASSSPRINGSYSTEM\DIRECTXTK\BIN\DESKTOP_2013\WIN32\DEBUG\EFFECTCOMMON.OBJ
C:\BNJMO\PROJECTS\VISUAL STUDIO\LEGENDARY TUM TEAM\PROJECT\GAMEPHYSICSEX1\MASSSPRINGSYSTEM\DIRECTXTK\BIN\DESKTOP_2013\WIN32\DEBUG\EFFECTFACTORY.OBJ
C:\BNJMO\PROJECTS\VISUAL STUDIO\LEGENDARY TUM TEAM\PROJECT\GAMEPHYSICSEX1\MASSSPRINGSYSTEM\DIRECTXTK\BIN\DESKTOP_2013\WIN32\DEBUG\ENVIRONMENTMAPEFFECT.OBJ
C:\BNJMO\PROJECTS\VISUAL STUDIO\LEGENDARY TUM TEAM\PROJECT\GAMEPHYSICSEX1\MASSSPRINGSYSTEM\DIRECTXTK\BIN\DESKTOP_2013\WIN32\DEBUG\GAMEPAD.OBJ
C:\BNJMO\PROJECTS\VISUAL STUDIO\LEGENDARY TUM TEAM\PROJECT\GAMEPHYSICSEX1\MASSSPRINGSYSTEM\DIRECTXTK\BIN\DESKTOP_2013\WIN32\DEBUG\GEOMETRICPRIMITIVE.OBJ
C:\BNJMO\PROJECTS\VISUAL STUDIO\LEGENDARY TUM TEAM\PROJECT\GAMEPHYSICSEX1\MASSSPRINGSYSTEM\DIRECTXTK\BIN\DESKTOP_2013\WIN32\DEBUG\MODEL.OBJ
C:\BNJMO\PROJECTS\VISUAL STUDIO\LEGENDARY TUM TEAM\PROJECT\GAMEPHYSICSEX1\MASSSPRINGSYSTEM\DIRECTXTK\BIN\DESKTOP_2013\WIN32\DEBUG\MODELLOADCMO.OBJ
C:\BNJMO\PROJECTS\VISUAL STUDIO\LEGENDARY TUM TEAM\PROJECT\GAMEPHYSICSEX1\MASSSPRINGSYSTEM\DIRECTXTK\BIN\DESKTOP_2013\WIN32\DEBUG\MODELLOADSDKMESH.OBJ
C:\BNJMO\PROJECTS\VISUAL STUDIO\LEGENDARY TUM TEAM\PROJECT\GAMEPHYSICSEX1\MASSSPRINGSYSTEM\DIRECTXTK\BIN\DESKTOP_2013\WIN32\DEBUG\PCH.OBJ
C:\BNJMO\PROJECTS\VISUAL STUDIO\LEGENDARY TUM TEAM\PROJECT\GAMEPHYSICSEX1\MASSSPRINGSYSTEM\DIRECTXTK\BIN\DESKTOP_2013\WIN32\DEBUG\SCREENGRAB.OBJ
C:\BNJMO\PROJECTS\VISUAL STUDIO\LEGENDARY TUM TEAM\PROJECT\GAMEPHYSICSEX1\MASSSPRINGSYSTEM\DIRECTXTK\BIN\DESKTOP_2013\WIN32\DEBUG\SIMPLEMATH.OBJ
C:\BNJMO\PROJECTS\VISUAL STUDIO\LEGENDARY TUM TEAM\PROJECT\GAMEPHYSICSEX1\MASSSPRINGSYSTEM\DIRECTXTK\BIN\DESKTOP_2013\WIN32\DEBUG\SKINNEDEFFECT.OBJ
C:\BNJMO\PROJECTS\VISUAL STUDIO\LEGENDARY TUM TEAM\PROJECT\GAMEPHYSICSEX1\MASSSPRINGSYSTEM\DIRECTXTK\BIN\DESKTOP_2013\WIN32\DEBUG\SPRITEBATCH.OBJ
C:\BNJMO\PROJECTS\VISUAL STUDIO\LEGENDARY TUM TEAM\PROJECT\GAMEPHYSICSEX1\MASSSPRINGSYSTEM\DIRECTXTK\BIN\DESKTOP_2013\WIN32\DEBUG\PRIMITIVEBATCH.OBJ
C:\BNJMO\PROJECTS\VISUAL STUDIO\LEGENDARY TUM TEAM\PROJECT\GAMEPHYSICSEX1\MASSSPRINGSYSTEM\DIRECTXTK\BIN\DESKTOP_2013\WIN32\DEBUG\SPRITEFONT.OBJ
C:\BNJMO\PROJECTS\VISUAL STUDIO\LEGENDARY TUM TEAM\PROJECT\GAMEPHYSICSEX1\MASSSPRINGSYSTEM\DIRECTXTK\BIN\DESKTOP_2013\WIN32\DEBUG\VERTEXTYPES.OBJ
C:\BNJMO\PROJECTS\VISUAL STUDIO\LEGENDARY TUM TEAM\PROJECT\GAMEPHYSICSEX1\MASSSPRINGSYSTEM\DIRECTXTK\BIN\DESKTOP_2013\WIN32\DEBUG\WICTEXTURELOADER.OBJ
