^C:\USERS\STEVE\DOCUMENTS\GAMEPHYSICSEX1\MASSSPRINGSYSTEM\SIMULATIONS\WIN32\DEBUG\FFMPEG.OBJ|C:\USERS\STEVE\DOCUMENTS\GAMEPHYSICSEX1\MASSSPRINGSYSTEM\SIMULATIONS\WIN32\DEBUG\MASSPOINT.OBJ|C:\USERS\STEVE\DOCUMENTS\GAMEPHYSICSEX1\MASSSPRINGSYSTEM\SIMULATIONS\WIN32\DEBUG\MASSSPRINGSYSTEM.OBJ|C:\USERS\STEVE\DOCUMENTS\GAMEPHYSICSEX1\MASSSPRINGSYSTEM\SIMULATIONS\WIN32\DEBUG\MASSSPRINGSYSTEMSIMULATOR.OBJ|C:\USERS\STEVE\DOCUMENTS\GAMEPHYSICSEX1\MASSSPRINGSYSTEM\SIMULATIONS\WIN32\DEBUG\RIGIDBODY.OBJ|C:\USERS\STEVE\DOCUMENTS\GAMEPHYSICSEX1\MASSSPRINGSYSTEM\SIMULATIONS\WIN32\DEBUG\RIGIDBODYSYSTEM.OBJ|C:\USERS\STEVE\DOCUMENTS\GAMEPHYSICSEX1\MASSSPRINGSYSTEM\SIMULATIONS\WIN32\DEBUG\RIGIDBODYSYSTEMSIMULATOR.OBJ|C:\USERS\STEVE\DOCUMENTS\GAMEPHYSICSEX1\MASSSPRINGSYSTEM\SIMULATIONS\WIN32\DEBUG\SPRING.OBJ|C:\USERS\STEVE\DOCUMENTS\GAMEPHYSICSEX1\MASSSPRINGSYSTEM\SIMULATIONS\WIN32\DEBUG\TEMPLATESIMULATOR.OBJ|C:\USERS\STEVE\DOCUMENTS\GAMEPHYSICSEX1\MASSSPRINGSYSTEM\SIMULATIONS\WIN32\DEBUG\UTIL.OBJ
/OUT:"C:\USERS\STEVE\DOCUMENTS\GAMEPHYSICSEX1\MASSSPRINGSYSTEM\WIN32\DEBUG\SIMULATIONS.LIB" /NOLOGO WIN32\DEBUG\MASSPOINT.OBJWIN32\DEBUG\MASSSPRINGSYSTEM.OBJWIN32\DEBUG\MASSSPRINGSYSTEMSIMULATOR.OBJWIN32\DEBUG\RIGIDBODY.OBJWIN32\DEBUG\RIGIDBODYSYSTEM.OBJWIN32\DEBUG\RIGIDBODYSYSTEMSIMULATOR.OBJWIN32\DEBUG\SPRING.OBJWIN32\DEBUG\TEMPLATESIMULATOR.OBJWIN32\DEBUG\FFMPEG.OBJWIN32\DEBUG\UTIL.OBJ
^C:\BNJMO\PROJECTS\VISUAL STUDIO\LEGENDARY TUM TEAM\PROJECT\GAMEPHYSICSEX1\MASSSPRINGSYSTEM\SIMULATIONS\WIN32\DEBUG\FFMPEG.OBJ|C:\BNJMO\PROJECTS\VISUAL STUDIO\LEGENDARY TUM TEAM\PROJECT\GAMEPHYSICSEX1\MASSSPRINGSYSTEM\SIMULATIONS\WIN32\DEBUG\MASSPOINT.OBJ|C:\BNJMO\PROJECTS\VISUAL STUDIO\LEGENDARY TUM TEAM\PROJECT\GAMEPHYSICSEX1\MASSSPRINGSYSTEM\SIMULATIONS\WIN32\DEBUG\MASSSPRINGSYSTEM.OBJ|C:\BNJMO\PROJECTS\VISUAL STUDIO\LEGENDARY TUM TEAM\PROJECT\GAMEPHYSICSEX1\MASSSPRINGSYSTEM\SIMULATIONS\WIN32\DEBUG\MASSSPRINGSYSTEMSIMULATOR.OBJ|C:\BNJMO\PROJECTS\VISUAL STUDIO\LEGENDARY TUM TEAM\PROJECT\GAMEPHYSICSEX1\MASSSPRINGSYSTEM\SIMULATIONS\WIN32\DEBUG\RIGIDBODY.OBJ|C:\BNJMO\PROJECTS\VISUAL STUDIO\LEGENDARY TUM TEAM\PROJECT\GAMEPHYSICSEX1\MASSSPRINGSYSTEM\SIMULATIONS\WIN32\DEBUG\RIGIDBODYSYSTEM.OBJ|C:\BNJMO\PROJECTS\VISUAL STUDIO\LEGENDARY TUM TEAM\PROJECT\GAMEPHYSICSEX1\MASSSPRINGSYSTEM\SIMULATIONS\WIN32\DEBUG\RIGIDBODYSYSTEMSIMULATOR.OBJ|C:\BNJMO\PROJECTS\VISUAL STUDIO\LEGENDARY TUM TEAM\PROJECT\GAMEPHYSICSEX1\MASSSPRINGSYSTEM\SIMULATIONS\WIN32\DEBUG\SPRING.OBJ|C:\BNJMO\PROJECTS\VISUAL STUDIO\LEGENDARY TUM TEAM\PROJECT\GAMEPHYSICSEX1\MASSSPRINGSYSTEM\SIMULATIONS\WIN32\DEBUG\TEMPLATESIMULATOR.OBJ|C:\BNJMO\PROJECTS\VISUAL STUDIO\LEGENDARY TUM TEAM\PROJECT\GAMEPHYSICSEX1\MASSSPRINGSYSTEM\SIMULATIONS\WIN32\DEBUG\UTIL.OBJ
/OUT:"C:\BNJMO\PROJECTS\VISUAL STUDIO\LEGENDARY TUM TEAM\PROJECT\GAMEPHYSICSEX1\MASSSPRINGSYSTEM\WIN32\DEBUG\SIMULATIONS.LIB" /NOLOGO WIN32\DEBUG\MASSPOINT.OBJWIN32\DEBUG\MASSSPRINGSYSTEM.OBJWIN32\DEBUG\MASSSPRINGSYSTEMSIMULATOR.OBJWIN32\DEBUG\RIGIDBODY.OBJWIN32\DEBUG\RIGIDBODYSYSTEM.OBJWIN32\DEBUG\RIGIDBODYSYSTEMSIMULATOR.OBJWIN32\DEBUG\SPRING.OBJWIN32\DEBUG\TEMPLATESIMULATOR.OBJWIN32\DEBUG\FFMPEG.OBJWIN32\DEBUG\UTIL.OBJ
